HW9
…
`summarise()` has grouped output by 'date', 'season'. You can override using
the `.groups` argument.

# Data check
bike_data

# A tibble: 353 × 12
   date       season holiday    bikes    temp humidity  wind   vis dew_point
   <date>     <fct>  <fct>      <dbl>   <dbl>    <dbl> <dbl> <dbl>     <dbl>
 1 2017-12-01 Winter No Holiday  9539 -2.45       45.9 1.54  1871.    -13.5 
 2 2017-12-02 Winter No Holiday  8523  1.32       62.0 1.71  1471.     -5.72
 3 2017-12-03 Winter No Holiday  7222  4.88       81.5 1.61   456.      1.88
 4 2017-12-04 Winter No Holiday  8729 -0.304      52.5 3.45  1363.     -9.93
 5 2017-12-05 Winter No Holiday  8307 -4.46       36.4 1.11  1959.    -17.4 
 6 2017-12-06 Winter No Holiday  6669  0.0458     70.8 0.696 1187.     -5.19
 7 2017-12-07 Winter No Holiday  8549  1.09       67.5 1.69   949.     -5.01
 8 2017-12-08 Winter No Holiday  8032 -3.82       41.8 1.85  1872.    -15.4 
 9 2017-12-09 Winter No Holiday  7233 -0.846      46   1.08  1861.    -11.2 
10 2017-12-10 Winter No Holiday  3453  1.19       69.7 2.00  1043.     -4.03
# ℹ 343 more rows
# ℹ 3 more variables: solar_rads <dbl>, rain <dbl>, snow <dbl>
…
# Fitting using tune_grid
reg_fit <- reg_wkf |>
  tune_grid(resamples = bike_cv10,
            grid = reg_grid,
            metrics = metric_set(rmse, mae))

Now that this is setup we should sort this by getting the smallest rmse value, and while doing this will filter just to show rmse. After that we will use select_best() to grab the best tuning parameter values.

# collecting metrics
reg_fit |>
  collect_metrics() 

# A tibble: 100 × 8
   cost_complexity tree_depth .metric .estimator  mean     n std_err .config    
             <dbl>      <int> <chr>   <chr>      <dbl> <int>   <dbl> <chr>      
 1    0.0000000001          1 mae     standard   4969.    10    243. Preprocess…
 2    0.0000000001          1 rmse    standard   6432.    10    350. Preprocess…
 3    0.000000001           1 mae     standard   4969.    10    243. Preprocess…
 4    0.000000001           1 rmse    standard   6432.    10    350. Preprocess…
 5    0.00000001            1 mae     standard   4969.    10    243. Preprocess…
 6    0.00000001            1 rmse    standard   6432.    10    350. Preprocess…
 7    0.0000001             1 mae     standard   4969.    10    243. Preprocess…
 8    0.0000001             1 rmse    standard   6432.    10    350. Preprocess…
 9    0.000001              1 mae     standard   4969.    10    243. Preprocess…
10    0.000001              1 rmse    standard   6432.    10    350. Preprocess…
# ℹ 90 more rows
…
# Creating fit and grid
bag_fit <- bag_wkf |>
  tune_grid(resamples = bike_cv10,
            grid = grid_regular(cost_complexity(),
                                tree_depth(),
                                levels = 5),
            metrics = metric_set(rmse, mae)) # only doing five levels because it takes a very long time to load

# Collecting metrics across the folds 
bag_fit |>
  collect_metrics() |>
  filter(.metric == "rmse") |>
  arrange(cost_complexity)

# A tibble: 25 × 8
   cost_complexity tree_depth .metric .estimator  mean     n std_err .config    
             <dbl>      <int> <chr>   <chr>      <dbl> <int>   <dbl> <chr>      
 1    0.0000000001          1 rmse    standard   6119.    10    371. Preprocess…
 2    0.0000000001          4 rmse    standard   3591.    10    138. Preprocess…
 3    0.0000000001          8 rmse    standard   3387.    10    210. Preprocess…
 4    0.0000000001         11 rmse    standard   3200.    10    182. Preprocess…
 5    0.0000000001         15 rmse    standard   3222.    10    174. Preprocess…
 6    0.0000000178          1 rmse    standard   6210.    10    348. Preprocess…
 7    0.0000000178          4 rmse    standard   3622.    10    151. Preprocess…
 8    0.0000000178          8 rmse    standard   3289.    10    183. Preprocess…
 9    0.0000000178         11 rmse    standard   3247.    10    196. Preprocess…
10    0.0000000178         15 rmse    standard   3389.    10    190. Preprocess…
# ℹ 15 more rows
…
